P02/Código_Actividades_Previas_2 (1)/Código_Actividades_Previas_2/cuenta1_tb.vcd
$date
	Fri Nov 24 03:59:23 2023
$end
$version
	Icarus Verilog
$end
$timescale
	10ps
$end
$scope module cuenta1_tb $end
$var wire 1 ! t_fin $end
$var wire 4 " t_Cuenta [3:0] $end
$var reg 3 # t_Valor [2:0] $end
$var reg 1 $ t_clk $end
$var reg 1 % t_start $end
$scope module cuenta1_1 $end
$var wire 4 & Cuenta [3:0] $end
$var wire 3 ' Valor [2:0] $end
$var wire 1 $ clk $end
$var wire 1 % start $end
$var wire 1 ! fin $end
$var wire 3 ( SalQ [2:0] $end
$var wire 4 ) SalA [3:0] $end
$var wire 1 * ResetA $end
$var wire 4 + EntA [3:0] $end
$var wire 1 , DesplazaQ $end
$var wire 1 - CargaQ $end
$var wire 1 . CargaA $end
$scope module A $end
$var wire 1 $ clk $end
$var wire 4 / q [3:0] $end
$var wire 4 0 entA [3:0] $end
$var wire 1 * ResetA $end
$var wire 1 . CargaA $end
$scope module ffa0 $end
$var wire 1 $ clk $end
$var wire 1 1 d $end
$var wire 1 * reset $end
$var wire 1 . carga $end
$var reg 1 2 q $end
$upscope $end
$scope module ffa1 $end
$var wire 1 $ clk $end
$var wire 1 3 d $end
$var wire 1 * reset $end
$var wire 1 . carga $end
$var reg 1 4 q $end
$upscope $end
$scope module ffa2 $end
$var wire 1 $ clk $end
$var wire 1 5 d $end
$var wire 1 * reset $end
$var wire 1 . carga $end
$var reg 1 6 q $end
$upscope $end
$scope module ffa3 $end
$var wire 1 $ clk $end
$var wire 1 7 d $end
$var wire 1 * reset $end
$var wire 1 . carga $end
$var reg 1 8 q $end
$upscope $end
$upscope $end
$scope module Q $end
$var wire 1 $ clk $end
$var wire 1 9 enable $end
$var wire 3 : entQ [2:0] $end
$var wire 1 ; reset $end
$var wire 3 < q [2:0] $end
$var wire 1 , DesplazaQ $end
$var wire 1 - CargaQ $end
$scope module ff0 $end
$var wire 1 9 carga $end
$var wire 1 $ clk $end
$var wire 1 = inp_c $end
$var wire 1 > inp_d $end
$var wire 1 ; reset $end
$var wire 1 - selc_d $end
$var wire 1 ? q $end
$var wire 1 @ inp $end
$scope module ff0 $end
$var wire 1 9 carga $end
$var wire 1 $ clk $end
$var wire 1 ; reset $end
$var wire 1 @ d $end
$var reg 1 ? q $end
$upscope $end
$scope module mux0 $end
$var wire 1 > a $end
$var wire 1 = b $end
$var wire 1 @ out $end
$var wire 1 A s_n $end
$var wire 1 B sa $end
$var wire 1 C sb $end
$var wire 1 - s $end
$upscope $end
$upscope $end
$scope module ff1 $end
$var wire 1 9 carga $end
$var wire 1 $ clk $end
$var wire 1 D inp_c $end
$var wire 1 E inp_d $end
$var wire 1 ; reset $end
$var wire 1 - selc_d $end
$var wire 1 F q $end
$var wire 1 G inp $end
$scope module ff0 $end
$var wire 1 9 carga $end
$var wire 1 $ clk $end
$var wire 1 ; reset $end
$var wire 1 G d $end
$var reg 1 F q $end
$upscope $end
$scope module mux0 $end
$var wire 1 E a $end
$var wire 1 D b $end
$var wire 1 G out $end
$var wire 1 H s_n $end
$var wire 1 I sa $end
$var wire 1 J sb $end
$var wire 1 - s $end
$upscope $end
$upscope $end
$scope module ff2 $end
$var wire 1 9 carga $end
$var wire 1 $ clk $end
$var wire 1 K inp_c $end
$var wire 1 L inp_d $end
$var wire 1 ; reset $end
$var wire 1 - selc_d $end
$var wire 1 M q $end
$var wire 1 N inp $end
$scope module ff0 $end
$var wire 1 9 carga $end
$var wire 1 $ clk $end
$var wire 1 ; reset $end
$var wire 1 N d $end
$var reg 1 M q $end
$upscope $end
$scope module mux0 $end
$var wire 1 L a $end
$var wire 1 K b $end
$var wire 1 N out $end
$var wire 1 O s_n $end
$var wire 1 P sa $end
$var wire 1 Q sb $end
$var wire 1 - s $end
$upscope $end
$upscope $end
$upscope $end
$scope module sum $end
$var wire 4 R A [3:0] $end
$var wire 4 S B [3:0] $end
$var wire 1 T c_in $end
$var wire 1 U p3 $end
$var wire 1 V p2 $end
$var wire 1 W p1 $end
$var wire 1 X p0 $end
$var wire 1 Y g3 $end
$var wire 1 Z g2 $end
$var wire 1 [ g1 $end
$var wire 1 \ g0 $end
$var wire 1 ] c_out $end
$var wire 1 ^ c4 $end
$var wire 1 _ c3 $end
$var wire 1 ` c2 $end
$var wire 1 a c1 $end
$var wire 4 b S [3:0] $end
$var wire 4 c C [4:1] $end
$scope module cla $end
$var wire 4 d G [3:0] $end
$var wire 4 e P [3:0] $end
$var wire 1 T c_in $end
$var wire 4 f C [4:1] $end
$upscope $end
$scope module fa0 $end
$var wire 1 g a $end
$var wire 1 h b $end
$var wire 1 T c_in $end
$var wire 1 a c_out $end
$var wire 1 \ g $end
$var wire 1 X p $end
$var wire 1 i sum_par $end
$var wire 1 j sum $end
$var wire 1 k carry2 $end
$var wire 1 l carry1 $end
$scope module ha1 $end
$var wire 1 g a $end
$var wire 1 h b $end
$var wire 1 l carry $end
$var wire 1 i sum $end
$upscope $end
$scope module ha2 $end
$var wire 1 T a $end
$var wire 1 i b $end
$var wire 1 k carry $end
$var wire 1 j sum $end
$upscope $end
$upscope $end
$scope module fa1 $end
$var wire 1 m a $end
$var wire 1 n b $end
$var wire 1 o c_in $end
$var wire 1 ` c_out $end
$var wire 1 [ g $end
$var wire 1 W p $end
$var wire 1 p sum_par $end
$var wire 1 q sum $end
$var wire 1 r carry2 $end
$var wire 1 s carry1 $end
$scope module ha1 $end
$var wire 1 m a $end
$var wire 1 n b $end
$var wire 1 s carry $end
$var wire 1 p sum $end
$upscope $end
$scope module ha2 $end
$var wire 1 o a $end
$var wire 1 p b $end
$var wire 1 r carry $end
$var wire 1 q sum $end
$upscope $end
$upscope $end
$scope module fa2 $end
$var wire 1 t a $end
$var wire 1 u b $end
$var wire 1 v c_in $end
$var wire 1 _ c_out $end
$var wire 1 Z g $end
$var wire 1 V p $end
$var wire 1 w sum_par $end
$var wire 1 x sum $end
$var wire 1 y carry2 $end
$var wire 1 z carry1 $end
$scope module ha1 $end
$var wire 1 t a $end
$var wire 1 u b $end
$var wire 1 z carry $end
$var wire 1 w sum $end
$upscope $end
$scope module ha2 $end
$var wire 1 v a $end
$var wire 1 w b $end
$var wire 1 y carry $end
$var wire 1 x sum $end
$upscope $end
$upscope $end
$scope module fa3 $end
$var wire 1 { a $end
$var wire 1 | b $end
$var wire 1 } c_in $end
$var wire 1 ^ c_out $end
$var wire 1 Y g $end
$var wire 1 U p $end
$var wire 1 ~ sum_par $end
$var wire 1 !" sum $end
$var wire 1 "" carry2 $end
$var wire 1 #" carry1 $end
$scope module ha1 $end
$var wire 1 { a $end
$var wire 1 | b $end
$var wire 1 #" carry $end
$var wire 1 ~ sum $end
$upscope $end
$scope module ha2 $end
$var wire 1 } a $end
$var wire 1 ~ b $end
$var wire 1 "" carry $end
$var wire 1 !" sum $end
$upscope $end
$upscope $end
$upscope $end
$scope module uc0 $end
$var wire 1 $ clk $end
$var wire 1 $" q0 $end
$var wire 1 % start $end
$var wire 1 * ResetA $end
$var wire 1 ! Fin $end
$var wire 1 , DesplazaQ $end
$var wire 1 - CargaQ $end
$var wire 1 . CargaA $end
$var reg 3 %" nextstate [2:0] $end
$var reg 3 &" state [2:0] $end
$upscope $end
$upscope $end
$upscope $end
$enddefinitions $end
#0
$dumpvars
bx &"
bx %"
x$"
x#"
x""
x!"
x~
x}
0|
x{
xz
xy
xx
xw
xv
0u
xt
xs
xr
xq
xp
xo
0n
xm
xl
xk
xj
xi
1h
xg
bx f
bx1 e
b0x d
bx c
bx b
xa
x`
x_
x^
x]
x\
0[
0Z
0Y
1X
xW
xV
xU
0T
b1 S
bx R
0Q
0P
xO
0N
xM
0L
0K
0J
xI
xH
xG
xF
xE
0D
0C
xB
xA
x@
x?
x>
0=
bx <
0;
b0 :
x9
x8
x7
x6
x5
x4
x3
x2
x1
bx 0
bx /
x.
x-
x,
bx +
x*
bx )
bx (
b0 '
bx &
1%
1$
b0 #
bx "
x!
$end
#100
b1 %"
0G
0@
0.
0I
0B
0O
0H
0A
19
0,
1-
1*
0!
b0 &"
0#"
0z
0s
0k
#200
0v
0}
0]
0o
b0 c
b0 f
0U
0V
b1 e
0W
b0 d
0\
0{
0t
0m
0g
08
06
04
b0 "
b0 &
b0 )
b0 /
b0 R
02
#300
0_
0^
0`
0a
0y
0""
0r
0~
0w
0p
1i
0l
#400
07
05
03
11
0!"
0x
0q
b1 +
b1 0
b1 b
1j
#1000
0%
#2000
0$
#4000
1$
#4100
b10 %"
1O
1H
1A
09
0-
0*
0E
0>
0$"
0M
0F
b0 (
b0 <
0?
b1 &"
#6000
0$
#8000
1$
#8100
b11 %"
19
1,
b10 &"
#10000
0$
#12000
1$
#12100
b100 %"
09
0,
b11 &"
#14000
0$
#16000
1$
#16100
b101 %"
19
1,
b100 &"
#18000
0$
#20000
1$
#20100
b110 %"
09
0,
b101 &"
#22000
0$
#24000
1$
#24100
1!
b110 &"
#26000
0$
#28000
1=
1$
1%
b1 #
b1 '
b1 :
#28100
b1 %"
1@
0O
0H
1C
0A
19
1-
1*
0!
b0 &"
#29000
0%
#30000
0$
#32000
1$
#32100
b10 %"
1.
0@
1O
1H
0C
1A
09
0-
0*
1$"
b1 (
b1 <
1?
b1 &"
#34000
0$
#36000
1$
#36100
b11 %"
1o
0.
b1 c
b1 f
19
1,
b1 d
1\
1g
b1 "
b1 &
b1 )
b1 /
b1 R
12
b10 &"
#36200
13
1a
b11 +
b11 0
b11 b
1q
0i
1l
#36300
01
b10 +
b10 0
b10 b
0j
#38000
0$
#40000
1$
#40100
b100 %"
09
0,
0$"
b0 (
b0 <
0?
b11 &"
#42000
0$
#44000
1$
#44100
b101 %"
19
1,
b100 &"
#46000
0$
#48000
1$
#48100
b110 %"
09
0,
b101 &"
#50000
0$
#52000
1$
#52100
1!
b110 &"
#54000
0$
#56000
0=
1D
1$
1%
b10 #
b10 '
b10 :
#56100
b1 %"
1G
0O
1J
0H
0A
19
1-
1*
0!
b0 &"
#56200
0o
b0 c
b0 f
b0 d
0\
0g
b0 "
b0 &
b0 )
b0 /
b0 R
02
#56300
03
0a
b0 +
b0 0
b0 b
0q
1i
0l
#56400
11
b1 +
b1 0
b1 b
1j
#57000
0%
#58000
0$
#60000
1$
#60100
b10 %"
1@
0G
1B
1O
0J
1H
1A
09
0-
0*
1>
b10 (
b10 <
1F
b1 &"
#62000
0$
#64000
1$
#64100
b11 %"
19
1,
b10 &"
#66000
0$
#68000
1$
#68100
b100 %"
1.
09
0@
0,
0B
0>
1$"
0F
b1 (
b1 <
1?
b11 &"
#70000
0$
#72000
1$
#72100
b101 %"
1o
0.
b1 c
b1 f
19
1,
b1 d
1\
1g
b1 "
b1 &
b1 )
b1 /
b1 R
12
b100 &"
#72200
13
1a
b11 +
b11 0
b11 b
1q
0i
1l
#72300
01
b10 +
b10 0
b10 b
0j
#74000
0$
#76000
1$
#76100
b110 %"
09
0,
0$"
b0 (
b0 <
0?
b101 &"
#78000
0$
#80000
1$
#80100
1!
b110 &"
#82000
0$
#84000
1=
1$
1%
b11 #
b11 '
b11 :
#84100
b1 %"
1G
1@
0O
1J
0H
1C
0A
19
1-
1*
0!
b0 &"
#84200
0o
b0 c
b0 f
b0 d
0\
0g
b0 "
b0 &
b0 )
b0 /
b0 R
02
#84300
03
0a
b0 +
b0 0
b0 b
0q
1i
0l
#84400
11
b1 +
b1 0
b1 b
1j
#85000
0%
#86000
0$
#88000
1$
#88100
b10 %"
1.
0G
1B
1O
0J
1H
0C
1A
09
0-
0*
1$"
1>
1?
b11 (
b11 <
1F
b1 &"
#90000
0$
#92000
1$
#92100
b11 %"
1o
0.
b1 c
b1 f
19
1,
b1 d
1\
1g
b1 "
b1 &
b1 )
b1 /
b1 R
12
b10 &"
#92200
13
1a
b11 +
b11 0
b11 b
1q
0i
1l
#92300
01
b10 +
b10 0
b10 b
0j
#94000
0$
#96000
1$
#96100
b100 %"
1.
09
0@
0,
0B
0>
b1 (
b1 <
0F
b11 &"
#98000
0$
#100000
1$
#100100
b101 %"
0o
0.
b0 c
b0 f
19
1,
b11 e
1W
b0 d
0\
1m
0g
14
b10 "
b10 &
b10 )
b10 /
b10 R
02
b100 &"
#100200
03
0a
b0 +
b0 0
b0 b
0q
1p
1i
0l
#100300
13
11
1q
b11 +
b11 0
b11 b
1j
#102000
0$
#104000
1$
#104100
b110 %"
09
0,
0$"
b0 (
b0 <
0?
b101 &"
#106000
0$
#108000
1$
#108100
1!
b110 &"
#110000
0$
#112000
0=
0D
1K
1$
1%
b100 #
b100 '
b100 :
#112100
b1 %"
1N
1Q
0O
0H
0A
19
1-
1*
0!
b0 &"
#112200
b1 e
0W
0m
b0 "
b0 &
b0 )
b0 /
b0 R
04
#112300
0p
#112400
03
b1 +
b1 0
b1 b
0q
#113000
0%
#114000
0$
#116000
1$
#116100
b10 %"
1G
0N
1I
0Q
1O
1H
1A
09
0-
0*
1E
b100 (
b100 <
1M
b1 &"
#118000
0$
#120000
1$
#120100
b11 %"
19
1,
b10 &"
#122000
0$
#124000
1$
#124100
b100 %"
09
0G
1@
0,
0I
1B
0E
1>
0M
b10 (
b10 <
1F
b11 &"
#126000
0$
#128000
1$
#128100
b101 %"
19
1,
b100 &"
#130000
0$
#132000
1$
#132100
b110 %"
09
1.
0@
0,
0B
0>
1$"
0F
b1 (
b1 <
1?
b101 &"
#134000
0$
#136000
1$
#136100
1o
b1 c
b1 f
0.
b1 d
1\
1!
1g
b1 "
b1 &
b1 )
b1 /
b1 R
12
b110 &"
#136200
13
1a
b11 +
b11 0
b11 b
1q
0i
1l
#136300
01
b10 +
b10 0
b10 b
0j
#138000
0$
#140000
1=
1$
1%
b101 #
b101 '
b101 :
#140100
b1 %"
1N
1@
1Q
0O
0H
1C
0A
19
1-
1*
0!
b0 &"
#140200
0o
b0 c
b0 f
b0 d
0\
0g
b0 "
b0 &
b0 )
b0 /
b0 R
02
#140300
03
0a
b0 +
b0 0
b0 b
0q
1i
0l
#140400
11
b1 +
b1 0
b1 b
1j
#141000
0%
#142000
0$
#144000
1$
#144100
b10 %"
1G
1.
0N
1I
0@
0Q
1O
1H
0C
1A
09
0-
0*
1E
b101 (
b101 <
1M
b1 &"
#146000
0$
#148000
1$
#148100
b11 %"
1o
0.
b1 c
b1 f
19
1,
b1 d
1\
1g
b1 "
b1 &
b1 )
b1 /
b1 R
12
b10 &"
#148200
13
1a
b11 +
b11 0
b11 b
1q
0i
1l
#148300
01
b10 +
b10 0
b10 b
0j
#150000
0$
#152000
1$
#152100
b100 %"
09
1@
0G
0,
1B
0I
0$"
1>
0E
0?
1F
b10 (
b10 <
0M
b11 &"
#154000
0$
#156000
1$
#156100
b101 %"
19
1,
b100 &"
#158000
0$
#160000
1$
#160100
b110 %"
09
1.
0@
0,
0B
1$"
0>
1?
b1 (
b1 <
0F
b101 &"
#162000
0$
#164000
1$
#164100
0o
b0 c
b0 f
0.
b11 e
1W
b0 d
0\
1!
1m
0g
14
b10 "
b10 &
b10 )
b10 /
b10 R
02
b110 &"
#164200
03
0a
b0 +
b0 0
b0 b
0q
1p
1i
0l
#164300
13
11
1q
b11 +
b11 0
b11 b
1j
#166000
0$
#168000
0=
1D
1$
1%
b110 #
b110 '
b110 :
#168100
b1 %"
1N
1G
1Q
0O
1J
0H
0A
19
1-
1*
0!
b0 &"
#168200
b1 e
0W
0m
b0 "
b0 &
b0 )
b0 /
b0 R
04
#168300
0p
#168400
03
b1 +
b1 0
b1 b
0q
#169000
0%
#170000
0$
#172000
1$
#172100
b10 %"
1@
0N
1I
1B
0Q
1O
0J
1H
1A
09
0-
0*
1E
1>
0$"
1M
1F
b110 (
b110 <
0?
b1 &"
#174000
0$
#176000
1$
#176100
b11 %"
19
1,
b10 &"
#178000
0$
#180000
1$
#180100
b100 %"
1.
09
0G
0,
0I
0E
1$"
0M
b11 (
b11 <
1?
b11 &"
#182000
0$
#184000
1$
#184100
b101 %"
1o
0.
b1 c
b1 f
19
1,
b1 d
1\
1g
b1 "
b1 &
b1 )
b1 /
b1 R
12
b100 &"
#184200
13
1a
b11 +
b11 0
b11 b
1q
0i
1l
#184300
01
b10 +
b10 0
b10 b
0j
#186000
0$
#188000
1$
#188100
b110 %"
09
1.
0@
0,
0B
0>
b1 (
b1 <
0F
b101 &"
#190000
0$
#192000
1$
#192100
0o
b0 c
b0 f
0.
b11 e
1W
b0 d
0\
1!
1m
0g
14
b10 "
b10 &
b10 )
b10 /
b10 R
02
b110 &"
#192200
03
0a
b0 +
b0 0
b0 b
0q
1p
1i
0l
#192300
13
11
1q
b11 +
b11 0
b11 b
1j
#194000
0$
#196000
1=
1$
1%
b111 #
b111 '
b111 :
#196100
b1 %"
1N
1G
1@
1Q
0O
1J
0H
1C
0A
19
1-
1*
0!
b0 &"
#196200
b1 e
0W
0m
b0 "
b0 &
b0 )
b0 /
b0 R
04
#196300
0p
#196400
03
b1 +
b1 0
b1 b
0q
#197000
0%
#198000
0$
#200000
1$
#200100
b10 %"
1.
0N
1I
1B
0Q
1O
0J
1H
0C
1A
09
0-
0*
1>
1E
1F
b111 (
b111 <
1M
b1 &"
#202000
0$
#204000
1$
#204100
b11 %"
1o
0.
b1 c
b1 f
19
1,
b1 d
1\
1g
b1 "
b1 &
b1 )
b1 /
b1 R
12
b10 &"
#204200
13
1a
b11 +
b11 0
b11 b
1q
0i
1l
#204300
01
b10 +
b10 0
b10 b
0j
#206000
0$
#208000
1$
#208100
b100 %"
1.
09
0G
0,
0I
0E
b11 (
b11 <
0M
b11 &"
#210000
0$
#212000
1$
#212100
b101 %"
0o
0.
b0 c
b0 f
19
1,
b11 e
1W
b0 d
0\
1m
0g
14
b10 "
b10 &
b10 )
b10 /
b10 R
02
b100 &"
#212200
03
0a
b0 +
b0 0
b0 b
0q
1p
1i
0l
#212300
13
11
1q
b11 +
b11 0
b11 b
1j
#214000
0$
#216000
1$
#216100
b110 %"
09
1.
0@
0,
0B
0>
b1 (
b1 <
0F
b101 &"
#218000
0$
#220000
1$
#220100
1v
1o
b11 c
b11 f
0.
b1 d
1\
1!
1g
b11 "
b11 &
b11 )
b11 /
b11 R
12
b110 &"
#220200
15
03
1`
1a
1x
b101 +
b101 0
b101 b
0q
1r
0i
1l
#220300
01
b100 +
b100 0
b100 b
0j
